EESchema Schematic File Version 4
LIBS:MulticompX-cache
EELAYER 30 0
EELAYER END
$Descr USLetter 11000 8500
encoding utf-8
Sheet 4 7
Title "PDP10X/Multicomp System Board"
Date "2020-01-24"
Rev "1.0"
Comp ""
Comment1 ""
Comment2 ""
Comment3 "From an original design by David G. Conroy (http://www.fpgaretrocomputing.org)"
Comment4 "Copyright © 2020 Rob Gowin. Licensed under CC BY-NC-SA 4.0."
$EndDescr
Text HLabel 4050 2000 0    60   Input ~ 0
~DRES
Entry Wire Line
	5650 2200 5750 2100
Entry Wire Line
	5650 2300 5750 2200
Entry Wire Line
	5650 2400 5750 2300
Entry Wire Line
	5650 2500 5750 2400
Entry Wire Line
	5650 2600 5750 2500
Entry Wire Line
	5650 2700 5750 2600
Entry Wire Line
	5650 2800 5750 2700
Entry Wire Line
	5650 2900 5750 2800
Entry Wire Line
	7250 2200 7150 2100
Entry Wire Line
	7250 2300 7150 2200
Entry Wire Line
	7250 2400 7150 2300
Entry Wire Line
	7250 2500 7150 2400
Entry Wire Line
	7250 2600 7150 2500
Entry Wire Line
	7250 2700 7150 2600
Text Label 5800 2100 0    60   ~ 0
DD7
Text Label 5800 2200 0    60   ~ 0
DD6
Text Label 5800 2300 0    60   ~ 0
DD5
Text Label 5800 2400 0    60   ~ 0
DD4
Text Label 5800 2500 0    60   ~ 0
DD3
Text Label 5800 2600 0    60   ~ 0
DD2
Text Label 5800 2700 0    60   ~ 0
DD1
Text Label 5800 2800 0    60   ~ 0
DD0
Text Label 6900 2100 0    60   ~ 0
DD8
Text Label 6900 2200 0    60   ~ 0
DD9
Text Label 6900 2300 0    60   ~ 0
DD10
Text Label 6900 2400 0    60   ~ 0
DD11
Text Label 6900 2500 0    60   ~ 0
DD12
Text Label 6900 2600 0    60   ~ 0
DD13
Text Label 6900 2700 0    60   ~ 0
DD14
Text Label 6900 2800 0    60   ~ 0
DD15
Wire Bus Line
	5650 1700 7250 1700
Text HLabel 4050 3100 0    60   Input ~ 0
~DWR
Text HLabel 4050 3200 0    60   Input ~ 0
~DRD
$Comp
L power:GND #PWR0134
U 1 1 5BAE5DDC
P 5100 2900
F 0 "#PWR0134" H 5100 2650 50  0001 C CNN
F 1 "GND" H 5200 2800 50  0000 C CNN
F 2 "" H 5100 2900 50  0001 C CNN
F 3 "" H 5100 2900 50  0001 C CNN
	1    5100 2900
	1    0    0    -1  
$EndComp
NoConn ~ 6700 3300
NoConn ~ 6700 3600
$Comp
L power:GND #PWR0135
U 1 1 5BAE5E80
P 7550 2000
F 0 "#PWR0135" H 7550 1750 50  0001 C CNN
F 1 "GND" H 7550 1850 50  0000 C CNN
F 2 "" H 7550 2000 50  0001 C CNN
F 3 "" H 7550 2000 50  0001 C CNN
	1    7550 2000
	1    0    0    -1  
$EndComp
Wire Wire Line
	7400 2000 7400 3000
Connection ~ 7400 3000
Connection ~ 7400 3100
Connection ~ 7400 3200
Text HLabel 4050 3500 0    60   Output ~ 0
DIRQ
Text Label 5850 3600 0    60   ~ 0
DA1
Text Label 5850 3700 0    60   ~ 0
DA0
$Comp
L Device:R R803
U 1 1 5BAE6065
P 4700 3700
F 0 "R803" V 4780 3700 50  0000 C CNN
F 1 "10K" V 4700 3700 50  0000 C CNN
F 2 "Resistor_THT:R_Axial_DIN0207_L6.3mm_D2.5mm_P7.62mm_Horizontal" V 4630 3700 50  0001 C CNN
F 3 "" H 4700 3700 50  0001 C CNN
	1    4700 3700
	1    0    0    -1  
$EndComp
$Comp
L power:GND #PWR0136
U 1 1 5BAE60B8
P 4700 3900
F 0 "#PWR0136" H 4700 3650 50  0001 C CNN
F 1 "GND" H 4800 3800 50  0000 C CNN
F 2 "" H 4700 3900 50  0001 C CNN
F 3 "" H 4700 3900 50  0001 C CNN
	1    4700 3900
	1    0    0    -1  
$EndComp
Wire Wire Line
	4700 3850 4700 3900
Text HLabel 4050 4800 0    60   Input ~ 0
~DCS0
Text HLabel 4050 4950 0    60   Input ~ 0
~DCS1
Wire Wire Line
	4050 4800 5450 4800
Wire Wire Line
	5450 4800 5450 3800
Text Label 6900 3700 0    60   ~ 0
DA2
Wire Wire Line
	4050 4950 7150 4950
$Comp
L power:GND #PWR0137
U 1 1 5BAE6529
P 6950 3950
F 0 "#PWR0137" H 6950 3700 50  0001 C CNN
F 1 "GND" H 6950 3800 50  0000 C CNN
F 2 "" H 6950 3950 50  0001 C CNN
F 3 "" H 6950 3950 50  0001 C CNN
	1    6950 3950
	1    0    0    -1  
$EndComp
Wire Wire Line
	6950 3900 6950 3950
$Comp
L Device:Jumper JP201
U 1 1 5BAE657A
P 8300 1500
F 0 "JP201" H 8300 1650 50  0000 C CNN
F 1 "Jumper" H 8300 1420 50  0000 C CNN
F 2 "Connector_PinHeader_2.54mm:PinHeader_1x02_P2.54mm_Vertical" H 8300 1500 50  0001 C CNN
F 3 "" H 8300 1500 50  0001 C CNN
	1    8300 1500
	1    0    0    -1  
$EndComp
Entry Wire Line
	7250 2600 7150 2500
Entry Wire Line
	7250 2700 7150 2600
Entry Wire Line
	7150 2700 7250 2800
Entry Wire Line
	7150 2800 7250 2900
Wire Wire Line
	7100 2900 7100 2950
Wire Wire Line
	7100 2950 7800 2950
Text HLabel 4050 4200 0    60   Input ~ 0
DA[0..2]
Wire Wire Line
	7250 4400 7250 3700
Wire Wire Line
	5650 4300 5650 3600
Wire Wire Line
	5550 4200 5550 3700
Wire Wire Line
	7400 3000 7400 3100
Wire Wire Line
	7400 3100 7400 3200
Wire Wire Line
	7400 3200 7400 3400
$Comp
L Connector_Generic:Conn_02x20_Odd_Even J201
U 1 1 5CBCAEBA
P 6400 2900
F 0 "J201" H 6450 4017 50  0000 C CNN
F 1 "Conn_02x20_Odd_Even" H 6450 3926 50  0000 C CNN
F 2 "Connector_IDC:IDC-Header_2x20_P2.54mm_Vertical" H 6400 2900 50  0001 C CNN
F 3 "~" H 6400 2900 50  0001 C CNN
	1    6400 2900
	1    0    0    -1  
$EndComp
Wire Wire Line
	4050 2000 4300 2000
Wire Wire Line
	5750 2100 6200 2100
Wire Wire Line
	5750 2200 6200 2200
Wire Wire Line
	5750 2300 6200 2300
Wire Wire Line
	5750 2400 6200 2400
Wire Wire Line
	5750 2500 6200 2500
Wire Wire Line
	5750 2600 6200 2600
Wire Wire Line
	5750 2700 6200 2700
Wire Wire Line
	5750 2800 6200 2800
Wire Wire Line
	5700 2900 6200 2900
Wire Wire Line
	4050 3100 6200 3100
Wire Wire Line
	4050 3200 6200 3200
Wire Wire Line
	5650 3600 6200 3600
Wire Wire Line
	5550 3700 6200 3700
Wire Wire Line
	6700 2000 7400 2000
Wire Wire Line
	6700 2100 7150 2100
Wire Wire Line
	6700 2200 7150 2200
Wire Wire Line
	6700 2300 7150 2300
Wire Wire Line
	6700 2400 7150 2400
Wire Wire Line
	6700 2500 7150 2500
Wire Wire Line
	6700 2600 7150 2600
Wire Wire Line
	6700 2700 7150 2700
Wire Wire Line
	6700 2800 7150 2800
Wire Wire Line
	6700 2900 7100 2900
Wire Wire Line
	6700 3000 7400 3000
Wire Wire Line
	6700 3100 7400 3100
Wire Wire Line
	6700 3200 7400 3200
Wire Wire Line
	6700 3400 7400 3400
Wire Wire Line
	6700 3700 7250 3700
Wire Wire Line
	6700 3800 7150 3800
Wire Wire Line
	6700 3900 6950 3900
Connection ~ 5650 1700
Wire Wire Line
	7150 3800 7150 4950
Wire Wire Line
	4050 3500 4700 3500
Wire Wire Line
	4700 3550 4700 3500
Connection ~ 4700 3500
Wire Wire Line
	4700 3500 6200 3500
Wire Wire Line
	5450 3800 6200 3800
Wire Bus Line
	5650 1700 4050 1700
Text HLabel 4050 1700 0    60   BiDi ~ 0
DD[0..15]
Entry Wire Line
	5050 4300 5150 4200
Entry Wire Line
	5050 4400 5150 4300
Entry Wire Line
	5050 4500 5150 4400
Wire Wire Line
	5150 4200 5550 4200
Wire Wire Line
	5150 4300 5650 4300
Wire Wire Line
	5150 4400 7250 4400
Wire Bus Line
	4050 4200 5050 4200
Text HLabel 4050 3400 0    60   Input ~ 0
~DACK
Wire Wire Line
	4050 3400 6200 3400
NoConn ~ 6200 3900
$Comp
L Device:R R805
U 1 1 5D515A3D
P 4300 2250
F 0 "R805" V 4380 2250 50  0000 C CNN
F 1 "560" V 4300 2250 50  0000 C CNN
F 2 "Resistor_THT:R_Axial_DIN0207_L6.3mm_D2.5mm_P7.62mm_Horizontal" V 4230 2250 50  0001 C CNN
F 3 "" H 4300 2250 50  0001 C CNN
	1    4300 2250
	1    0    0    -1  
$EndComp
$Comp
L power:GND #PWR0139
U 1 1 5D515A69
P 4300 2500
F 0 "#PWR0139" H 4300 2250 50  0001 C CNN
F 1 "GND" H 4400 2400 50  0000 C CNN
F 2 "" H 4300 2500 50  0001 C CNN
F 3 "" H 4300 2500 50  0001 C CNN
	1    4300 2500
	1    0    0    -1  
$EndComp
Wire Wire Line
	4300 2400 4300 2500
Wire Wire Line
	4300 2000 4300 2100
Text Notes 7800 4050 0    50   ~ 0
Compared to the original schematic, \nwe don’t implement DDRQ, ~DRDY~ \nand ~DCS16~ because they aren’t \nimplemented in the FPGA and we \ndon’t have the pins from the FPGA \nboard available anyway.
Wire Wire Line
	6200 3000 5750 3000
$Comp
L Device:R R804
U 1 1 5D51A4A5
P 5750 5750
F 0 "R804" V 5850 5650 50  0000 L CNN
F 1 "10K" V 5750 5650 50  0000 L CNN
F 2 "Resistor_THT:R_Axial_DIN0207_L6.3mm_D2.5mm_P7.62mm_Horizontal" V 5680 5750 50  0001 C CNN
F 3 "~" H 5750 5750 50  0001 C CNN
	1    5750 5750
	1    0    0    -1  
$EndComp
$Comp
L power:GND #PWR0140
U 1 1 5D51A4CB
P 5750 6000
F 0 "#PWR0140" H 5750 5750 50  0001 C CNN
F 1 "GND" H 5850 5900 50  0000 C CNN
F 2 "" H 5750 6000 50  0001 C CNN
F 3 "" H 5750 6000 50  0001 C CNN
	1    5750 6000
	1    0    0    -1  
$EndComp
Wire Wire Line
	5750 3000 5750 5600
Wire Wire Line
	5750 5900 5750 6000
Wire Wire Line
	7400 2000 7550 2000
Connection ~ 7400 2000
Wire Wire Line
	6700 3500 8300 3500
$Comp
L power:VDD #PWR0141
U 1 1 5D523BEA
P 8300 2800
F 0 "#PWR0141" H 8300 2650 50  0001 C CNN
F 1 "VDD" H 8317 2973 50  0000 C CNN
F 2 "" H 8300 2800 50  0001 C CNN
F 3 "" H 8300 2800 50  0001 C CNN
	1    8300 2800
	1    0    0    -1  
$EndComp
$Comp
L Device:R R801
U 1 1 5D523C01
P 8300 3150
F 0 "R801" V 8400 3050 50  0000 L CNN
F 1 "1000" V 8300 3050 50  0000 L CNN
F 2 "Resistor_THT:R_Axial_DIN0207_L6.3mm_D2.5mm_P7.62mm_Horizontal" V 8230 3150 50  0001 C CNN
F 3 "~" H 8300 3150 50  0001 C CNN
	1    8300 3150
	1    0    0    -1  
$EndComp
Text Label 7700 3500 0    50   ~ 0
~DCS16
Wire Wire Line
	5700 2900 5700 3000
Wire Wire Line
	5700 3000 5600 3000
Wire Wire Line
	5600 3000 5600 2900
Wire Wire Line
	5600 2900 5100 2900
Text Label 5850 3000 0    50   ~ 0
DDRQ
Connection ~ 4300 2000
Wire Wire Line
	4300 2000 6200 2000
$Comp
L power:VDD #PWR0142
U 1 1 5D533A16
P 4850 1500
F 0 "#PWR0142" H 4850 1350 50  0001 C CNN
F 1 "VDD" H 4867 1673 50  0000 C CNN
F 2 "" H 4850 1500 50  0001 C CNN
F 3 "" H 4850 1500 50  0001 C CNN
	1    4850 1500
	1    0    0    -1  
$EndComp
$Comp
L Device:R R802
U 1 1 5D533A1C
P 4850 2200
F 0 "R802" V 4950 2100 50  0000 L CNN
F 1 "1000" V 4850 2100 50  0000 L CNN
F 2 "Resistor_THT:R_Axial_DIN0207_L6.3mm_D2.5mm_P7.62mm_Horizontal" V 4780 2200 50  0001 C CNN
F 3 "~" H 4850 2200 50  0001 C CNN
	1    4850 2200
	1    0    0    -1  
$EndComp
Wire Wire Line
	4850 1500 4850 2050
Wire Wire Line
	6200 3300 4850 3300
Wire Wire Line
	4850 3300 4850 2350
Text Label 5850 3300 0    50   ~ 0
~DRDY
Wire Wire Line
	8300 2800 8300 3000
Wire Wire Line
	8300 3300 8300 3500
Wire Wire Line
	7800 1500 8000 1500
Wire Wire Line
	7800 1500 7800 2950
Wire Wire Line
	8600 1500 8800 1500
$Comp
L power:VCC #PWR0127
U 1 1 5DAF9852
P 8800 1300
F 0 "#PWR0127" H 8800 1150 50  0001 C CNN
F 1 "VCC" H 8817 1473 50  0000 C CNN
F 2 "" H 8800 1300 50  0001 C CNN
F 3 "" H 8800 1300 50  0001 C CNN
	1    8800 1300
	1    0    0    -1  
$EndComp
Wire Wire Line
	8800 1300 8800 1500
Wire Bus Line
	5050 4200 5050 4550
Wire Bus Line
	7250 1700 7250 2900
Wire Bus Line
	5650 1700 5650 2950
$EndSCHEMATC
