EESchema Schematic File Version 4
LIBS:MulticompX-cache
EELAYER 30 0
EELAYER END
$Descr USLetter 11000 8500
encoding utf-8
Sheet 1 7
Title "PDP10X/Multicomp System Board"
Date "2020-01-24"
Rev "1.0"
Comp ""
Comment1 ""
Comment2 ""
Comment3 "From an original design by David G. Conroy (http://www.fpgaretrocomputing.org)"
Comment4 "Copyright © 2020 Rob Gowin. Licensed under CC BY-NC-SA 4.0."
$EndDescr
$Sheet
S 6750 1200 1100 900 
U 5D4F3D82
F0 "MEMORY" 50
F1 "Memory.sch" 50
F2 "MD[0..35]" B L 6750 1300 50 
F3 "MAR[17..35]" I L 6750 1400 50 
F4 "~MWE0R" I L 6750 1500 50 
F5 "~MOE1R" I L 6750 2000 50 
F6 "~MCS1R" I L 6750 1900 50 
F7 "~MWE1R" I L 6750 1800 50 
F8 "~MOE0R" I L 6750 1700 50 
F9 "~MCS0R" I L 6750 1600 50 
$EndSheet
$Sheet
S 6750 2350 1150 300 
U 5D5147A8
F0 "RTC" 50
F1 "RTC.sch" 50
F2 "RSCL" I L 6750 2450 50 
F3 "RSDA" B L 6750 2550 50 
$EndSheet
$Sheet
S 6750 5350 1150 1000
U 5E6A4B1E
F0 "IDE" 50
F1 "IDE.sch" 50
F2 "~DRES" I L 6750 5450 50 
F3 "~DWR" I L 6750 5750 50 
F4 "~DRD" I L 6750 5650 50 
F5 "DIRQ" O L 6750 6150 50 
F6 "~DCS1" I L 6750 6050 50 
F7 "~DCS0" I L 6750 5950 50 
F8 "DA[0..2]" I L 6750 5550 50 
F9 "DD[0..15]" B L 6750 5850 50 
F10 "~DACK" I L 6750 6250 50 
$EndSheet
Wire Wire Line
	4300 6050 6750 6050
Wire Wire Line
	4300 6150 6750 6150
Wire Wire Line
	4300 5950 6750 5950
Wire Wire Line
	4300 2450 6750 2450
Wire Wire Line
	4300 2550 6750 2550
Wire Wire Line
	4300 6250 6750 6250
Wire Wire Line
	6200 1800 6750 1800
Wire Wire Line
	6200 1900 6750 1900
Wire Wire Line
	6200 2000 6750 2000
Wire Wire Line
	4300 1800 5050 1800
Wire Wire Line
	4300 1900 5050 1900
Wire Wire Line
	4300 2000 5050 2000
Wire Bus Line
	4300 1300 4900 1300
Wire Bus Line
	4900 1300 4900 1150
Wire Bus Line
	6400 1150 6400 1300
Wire Bus Line
	6400 1300 6750 1300
Wire Bus Line
	4300 1400 5050 1400
Wire Bus Line
	6200 1400 6750 1400
$Sheet
S 5050 1300 1150 850 
U 5D71D77A
F0 "SERIESTERM" 50
F1 "SERIESTERM.sch" 50
F2 "MA[17..35]" I L 5050 1400 50 
F3 "MAR[17..35]" O R 6200 1400 50 
F4 "~MCS0" I L 5050 1600 50 
F5 "~MOE0" I L 5050 1700 50 
F6 "~MWE0" I L 5050 1500 50 
F7 "~MCS0R" O R 6200 1600 50 
F8 "~MOE0R" O R 6200 1700 50 
F9 "~MWE0R" O R 6200 1500 50 
F10 "~MCS1" I L 5050 1900 50 
F11 "~MOE1" I L 5050 2000 50 
F12 "~MWE1" I L 5050 1800 50 
F13 "~MCS1R" O R 6200 1900 50 
F14 "~MOE1R" O R 6200 2000 50 
F15 "~MWE1R" O R 6200 1800 50 
$EndSheet
Wire Wire Line
	6200 1500 6750 1500
Wire Wire Line
	6200 1600 6750 1600
Wire Wire Line
	6200 1700 6750 1700
Wire Wire Line
	4300 1500 5050 1500
Wire Wire Line
	4300 1600 5050 1600
Wire Wire Line
	4300 1700 5050 1700
Wire Bus Line
	4900 1150 6400 1150
$Sheet
S 3100 1150 1200 5200
U 5D514CEA
F0 "FPGACONN" 50
F1 "FPGAConn.sch" 50
F2 "RSCL" O R 4300 2450 50 
F3 "RSDA" B R 4300 2550 50 
F4 "~EIRQ" I R 4300 4450 50 
F5 "~DRD" O R 4300 5650 50 
F6 "~DDAK" O R 4300 6250 50 
F7 "~DCS0" O R 4300 5950 50 
F8 "SPICLK" O R 4300 4250 50 
F9 "~DCS1" O R 4300 6050 50 
F10 "~DWR" O R 4300 5750 50 
F11 "~DRES" O R 4300 5450 50 
F12 "MD[0..35]" B R 4300 1300 50 
F13 "MA[17..35]" O R 4300 1400 50 
F14 "DA[0..2]" O R 4300 5550 50 
F15 "DD[0..15]" B R 4300 5850 50 
F16 "~SDCS" O R 4300 3950 50 
F17 "SPIMISO" I R 4300 4050 50 
F18 "SPIMOSI" O R 4300 4150 50 
F19 "DIRQ" I R 4300 6150 50 
F20 "~MCS0" O R 4300 1600 50 
F21 "~MOE0" O R 4300 1700 50 
F22 "~MWE0" O R 4300 1500 50 
F23 "~MWE1" O R 4300 1800 50 
F24 "~MOE1" O R 4300 2000 50 
F25 "~MCS1" O R 4300 1900 50 
F26 "KCLK" B R 4300 3750 50 
F27 "KDAT" B R 4300 3850 50 
F28 "~ECS" O R 4300 4550 50 
F29 "VIDEOB0" I R 4300 2950 50 
F30 "VIDEOB1" I R 4300 3050 50 
F31 "VIDEOG0" I R 4300 3350 50 
F32 "VIDEOG1" I R 4300 3450 50 
F33 "VIDEOR0" I R 4300 3150 50 
F34 "VIDEOR1" I R 4300 3250 50 
F35 "VSYNC" I R 4300 3650 50 
F36 "HSYNC" I R 4300 3550 50 
$EndSheet
Entry Bus Bus
	6250 4750 6350 4650
Wire Bus Line
	6250 4750 6250 5850
Wire Wire Line
	6650 5050 6750 5050
Wire Wire Line
	6650 5050 6650 5450
Wire Wire Line
	6450 4850 6750 4850
Wire Wire Line
	6450 4850 6450 5650
Wire Wire Line
	6350 4750 6750 4750
Wire Wire Line
	6350 4750 6350 5750
Wire Bus Line
	6350 4650 6750 4650
Wire Bus Line
	6550 4950 6750 4950
Wire Bus Line
	6550 4950 6550 5550
$Sheet
S 6750 2900 1150 2200
U 5D9F1596
F0 "ETHERNET/VGA/KBRD/SDCARD" 50
F1 "Ethernet.sch" 50
F2 "~ERES" I L 6750 5050 50 
F3 "~ECS" I L 6750 4550 50 
F4 "~EWR" I L 6750 4750 50 
F5 "~ERD" I L 6750 4850 50 
F6 "EA[0..2]" I L 6750 4950 50 
F7 "~EIRQ" O L 6750 4450 50 
F8 "KCLK" B L 6750 3750 50 
F9 "KDAT" B L 6750 3850 50 
F10 "VIDEOB0" I L 6750 2950 50 
F11 "VIDEOB1" I L 6750 3050 50 
F12 "VIDEOR0" I L 6750 3150 50 
F13 "VIDEOR1" I L 6750 3250 50 
F14 "VIDEOG0" I L 6750 3350 50 
F15 "VIDEOG1" I L 6750 3450 50 
F16 "HSYNC" I L 6750 3550 50 
F17 "VSYNC" I L 6750 3650 50 
F18 "SPICLK" I L 6750 4250 50 
F19 "SPIMOSI" I L 6750 4150 50 
F20 "SPIMISO" I L 6750 4050 50 
F21 "~SDCS" I L 6750 3950 50 
F22 "ED[0..15]" B L 6750 4650 50 
$EndSheet
Wire Bus Line
	4300 5850 6250 5850
Wire Bus Line
	4300 5550 6550 5550
Wire Wire Line
	4300 5450 6650 5450
Wire Wire Line
	4300 5650 6450 5650
Wire Wire Line
	4300 5750 6350 5750
Connection ~ 6250 5850
Wire Bus Line
	6250 5850 6750 5850
Connection ~ 6350 5750
Wire Wire Line
	6350 5750 6750 5750
Connection ~ 6450 5650
Wire Wire Line
	6450 5650 6750 5650
Connection ~ 6550 5550
Wire Bus Line
	6550 5550 6750 5550
Connection ~ 6650 5450
Wire Wire Line
	6650 5450 6750 5450
Wire Wire Line
	4300 3050 6750 3050
Wire Wire Line
	4300 3150 6750 3150
Wire Wire Line
	4300 2950 6750 2950
Wire Wire Line
	4300 3250 6750 3250
Wire Wire Line
	4300 3450 6750 3450
Wire Wire Line
	4300 3550 6750 3550
Wire Wire Line
	4300 3350 6750 3350
Wire Wire Line
	4300 3650 6750 3650
Wire Wire Line
	4300 3850 6750 3850
Wire Wire Line
	4300 3950 6750 3950
Wire Wire Line
	4300 3750 6750 3750
Wire Wire Line
	4300 4050 6750 4050
Wire Wire Line
	4300 4250 6750 4250
Wire Wire Line
	4300 4150 6750 4150
Wire Wire Line
	4300 4450 6750 4450
Wire Wire Line
	4300 4550 6750 4550
Text Label 5350 5850 0    50   ~ 0
DD[0..15]
Text Label 6350 4650 0    50   ~ 0
DD[0..15]
$EndSCHEMATC
