EESchema Schematic File Version 4
LIBS:MulticompX-cache
EELAYER 30 0
EELAYER END
$Descr USLetter 11000 8500
encoding utf-8
Sheet 6 8
Title "PDP10X/Multicomp System Board"
Date "2020-01-24"
Rev "1.0"
Comp ""
Comment1 ""
Comment2 ""
Comment3 "From an original design by David G. Conroy (http://www.fpgaretrocomputing.org)"
Comment4 "Copyright © 2020 Rob Gowin. Licensed under CC BY-NC-SA 4.0."
$EndDescr
$Comp
L W25X40BV:W25X40BV U301
U 1 1 5D52EBB6
P 5150 3600
F 0 "U301" H 4950 4050 50  0000 L CNN
F 1 "W25X40BV" H 4800 3300 50  0000 L CNN
F 2 "Package_DIP:DIP-8_W7.62mm_Socket_LongPads" H 5150 3600 50  0001 C CNN
F 3 "" H 5150 3600 50  0001 C CNN
	1    5150 3600
	1    0    0    -1  
$EndComp
Text HLabel 2750 3300 0    50   Input ~ 0
SPIMOSI
Text HLabel 2750 3400 0    50   Input ~ 0
SPICLK
Text HLabel 2750 3500 0    50   Input ~ 0
~SPICS
$Comp
L Device:R R301
U 1 1 5D52F15A
P 3100 2700
F 0 "R301" V 3200 2600 50  0000 L CNN
F 1 "10K" V 3100 2600 50  0000 L CNN
F 2 "Resistor_THT:R_Axial_DIN0207_L6.3mm_D2.5mm_P7.62mm_Horizontal" V 3030 2700 50  0001 C CNN
F 3 "~" H 3100 2700 50  0001 C CNN
	1    3100 2700
	1    0    0    -1  
$EndComp
$Comp
L Device:R R314
U 1 1 5D52F24C
P 3600 2700
F 0 "R314" V 3700 2600 50  0000 L CNN
F 1 "10K" V 3600 2600 50  0000 L CNN
F 2 "Resistor_THT:R_Axial_DIN0207_L6.3mm_D2.5mm_P7.62mm_Horizontal" V 3530 2700 50  0001 C CNN
F 3 "~" H 3600 2700 50  0001 C CNN
	1    3600 2700
	1    0    0    -1  
$EndComp
$Comp
L Device:R R302
U 1 1 5D52F2C4
P 4200 2700
F 0 "R302" V 4300 2600 50  0000 L CNN
F 1 "10K" V 4200 2600 50  0000 L CNN
F 2 "Resistor_THT:R_Axial_DIN0207_L6.3mm_D2.5mm_P7.62mm_Horizontal" V 4130 2700 50  0001 C CNN
F 3 "~" H 4200 2700 50  0001 C CNN
	1    4200 2700
	1    0    0    -1  
$EndComp
$Comp
L Device:R R305
U 1 1 5D52F2CA
P 4850 2350
F 0 "R305" V 4950 2250 50  0000 L CNN
F 1 "220" V 4850 2250 50  0000 L CNN
F 2 "Resistor_THT:R_Axial_DIN0207_L6.3mm_D2.5mm_P7.62mm_Horizontal" V 4780 2350 50  0001 C CNN
F 3 "~" H 4850 2350 50  0001 C CNN
	1    4850 2350
	1    0    0    -1  
$EndComp
$Comp
L Device:R R306
U 1 1 5D52F32E
P 4850 2850
F 0 "R306" V 4950 2750 50  0000 L CNN
F 1 "220" V 4850 2750 50  0000 L CNN
F 2 "Resistor_THT:R_Axial_DIN0207_L6.3mm_D2.5mm_P7.62mm_Horizontal" V 4780 2850 50  0001 C CNN
F 3 "~" H 4850 2850 50  0001 C CNN
	1    4850 2850
	1    0    0    -1  
$EndComp
$Comp
L Device:R R313
U 1 1 5D52F334
P 6000 2700
F 0 "R313" V 6100 2600 50  0000 L CNN
F 1 "10K" V 6000 2600 50  0000 L CNN
F 2 "Resistor_THT:R_Axial_DIN0207_L6.3mm_D2.5mm_P7.62mm_Horizontal" V 5930 2700 50  0001 C CNN
F 3 "~" H 6000 2700 50  0001 C CNN
	1    6000 2700
	1    0    0    -1  
$EndComp
Wire Wire Line
	2750 3300 3300 3300
Wire Wire Line
	2750 3400 3200 3400
Wire Wire Line
	2750 3500 3100 3500
Wire Wire Line
	3100 2850 3100 3500
Connection ~ 3100 3500
Wire Wire Line
	3100 3500 4800 3500
Wire Wire Line
	3600 2850 3600 3700
Wire Wire Line
	3600 3700 4800 3700
Wire Wire Line
	4200 2850 4200 3600
Wire Wire Line
	4200 3600 4800 3600
Wire Wire Line
	4850 2500 4850 2600
Wire Wire Line
	4850 2600 4500 2600
Wire Wire Line
	4500 2600 4500 3400
Connection ~ 4850 2600
Wire Wire Line
	4850 2600 4850 2700
Connection ~ 4500 3400
Wire Wire Line
	4500 3400 4800 3400
$Comp
L power:VDD #PWR0143
U 1 1 5D52F681
P 2650 2100
F 0 "#PWR0143" H 2650 1950 50  0001 C CNN
F 1 "VDD" H 2667 2273 50  0000 C CNN
F 2 "" H 2650 2100 50  0001 C CNN
F 3 "" H 2650 2100 50  0001 C CNN
	1    2650 2100
	1    0    0    -1  
$EndComp
Wire Wire Line
	2650 2100 2650 2200
Wire Wire Line
	2650 2200 3100 2200
Wire Wire Line
	3100 2550 3100 2200
Connection ~ 3100 2200
Wire Wire Line
	3100 2200 3600 2200
Wire Wire Line
	3600 2550 3600 2200
Connection ~ 3600 2200
Wire Wire Line
	3600 2200 4200 2200
Wire Wire Line
	4200 2550 4200 2200
Connection ~ 4200 2200
Wire Wire Line
	4200 2200 4850 2200
Wire Wire Line
	4850 2200 5300 2200
Wire Wire Line
	5300 2200 5300 3100
Connection ~ 4850 2200
Text HLabel 6500 3500 2    50   Output ~ 0
SPIMISO
Wire Wire Line
	5550 3500 6000 3500
Wire Wire Line
	6000 2850 6000 3500
Connection ~ 6000 3500
Wire Wire Line
	6000 3500 6500 3500
Wire Wire Line
	5300 2200 6000 2200
Wire Wire Line
	6000 2200 6000 2550
Connection ~ 5300 2200
$Comp
L power:GND #PWR0144
U 1 1 5D530A5E
P 5300 4050
F 0 "#PWR0144" H 5300 3800 50  0001 C CNN
F 1 "GND" H 5305 3877 50  0000 C CNN
F 2 "" H 5300 4050 50  0001 C CNN
F 3 "" H 5300 4050 50  0001 C CNN
	1    5300 4050
	1    0    0    -1  
$EndComp
Wire Wire Line
	5300 3900 5300 4050
$Comp
L power:GND #PWR0145
U 1 1 5D530D88
P 4700 3000
F 0 "#PWR0145" H 4700 2750 50  0001 C CNN
F 1 "GND" H 4705 2827 50  0000 C CNN
F 2 "" H 4700 3000 50  0001 C CNN
F 3 "" H 4700 3000 50  0001 C CNN
	1    4700 3000
	1    0    0    -1  
$EndComp
Wire Wire Line
	4700 3000 4850 3000
$Comp
L Device:C C301
U 1 1 5D5315C3
P 6550 2300
F 0 "C301" H 6665 2346 50  0000 L CNN
F 1 "0.1uF" H 6665 2255 50  0000 L CNN
F 2 "Capacitor_THT:C_Rect_L7.0mm_W2.0mm_P5.00mm" H 6588 2150 50  0001 C CNN
F 3 "~" H 6550 2300 50  0001 C CNN
	1    6550 2300
	1    0    0    -1  
$EndComp
$Comp
L power:GND #PWR0146
U 1 1 5D5316AD
P 6550 2550
F 0 "#PWR0146" H 6550 2300 50  0001 C CNN
F 1 "GND" H 6555 2377 50  0000 C CNN
F 2 "" H 6550 2550 50  0001 C CNN
F 3 "" H 6550 2550 50  0001 C CNN
	1    6550 2550
	1    0    0    -1  
$EndComp
$Comp
L power:VDD #PWR0147
U 1 1 5D5316C8
P 6550 2050
F 0 "#PWR0147" H 6550 1900 50  0001 C CNN
F 1 "VDD" H 6567 2223 50  0000 C CNN
F 2 "" H 6550 2050 50  0001 C CNN
F 3 "" H 6550 2050 50  0001 C CNN
	1    6550 2050
	1    0    0    -1  
$EndComp
Wire Wire Line
	6550 2050 6550 2150
Wire Wire Line
	6550 2450 6550 2550
Text HLabel 2800 5600 0    50   Input ~ 0
~SDCS
$Comp
L Connector_Generic:Conn_01x06 J3
U 1 1 5DADD7C2
P 4300 5800
F 0 "J3" H 4250 6150 50  0000 L CNN
F 1 "Conn_01x06" H 4150 5350 50  0000 L CNN
F 2 "Connector_PinHeader_2.54mm:PinHeader_1x06_P2.54mm_Vertical" H 4300 5800 50  0001 C CNN
F 3 "~" H 4300 5800 50  0001 C CNN
	1    4300 5800
	1    0    0    1   
$EndComp
Text Notes 4400 5500 0    50   ~ 0
VDD
Text Notes 4400 5600 0    50   ~ 0
~CS
Text Notes 4400 5700 0    50   ~ 0
MOSI
Text Notes 4400 5800 0    50   ~ 0
CLK
Text Notes 4400 5900 0    50   ~ 0
MISO
Text Notes 4400 6000 0    50   ~ 0
GND
Wire Wire Line
	2800 5600 3100 5600
$Comp
L power:VDD #PWR0138
U 1 1 5DADDED7
P 2700 5000
F 0 "#PWR0138" H 2700 4850 50  0001 C CNN
F 1 "VDD" H 2717 5173 50  0000 C CNN
F 2 "" H 2700 5000 50  0001 C CNN
F 3 "" H 2700 5000 50  0001 C CNN
	1    2700 5000
	1    0    0    -1  
$EndComp
Wire Wire Line
	3900 5500 4100 5500
$Comp
L power:GND #PWR0153
U 1 1 5DADE39A
P 3900 6100
F 0 "#PWR0153" H 3900 5850 50  0001 C CNN
F 1 "GND" H 3905 5927 50  0000 C CNN
F 2 "" H 3900 6100 50  0001 C CNN
F 3 "" H 3900 6100 50  0001 C CNN
	1    3900 6100
	1    0    0    -1  
$EndComp
Wire Wire Line
	3900 6100 3900 6000
Wire Wire Line
	3900 6000 4100 6000
Wire Wire Line
	3200 3400 3200 5800
Wire Wire Line
	3200 5800 4100 5800
Connection ~ 3200 3400
Wire Wire Line
	3200 3400 4500 3400
Wire Wire Line
	3300 3300 3300 5700
Wire Wire Line
	3300 5700 4100 5700
Connection ~ 3300 3300
Wire Wire Line
	3300 3300 4800 3300
Wire Wire Line
	6000 3500 6000 6500
Wire Wire Line
	6000 6500 3300 6500
Wire Wire Line
	3300 6500 3300 5900
Wire Wire Line
	3300 5900 4100 5900
Text Notes 4300 4900 0    50   ~ 0
SD Card SPI Interface, for \nuse in Multicomp mode.
Text Notes 4300 5250 0    50   ~ 0
Use one of the many SD Card\ncard breakout boards \navailable on eBay, etc. On eBay,\nsearch for “arduino mini microsd module”
$Comp
L Device:R R303
U 1 1 5DAE0838
P 3100 5350
F 0 "R303" V 3000 5250 50  0000 L CNN
F 1 "10K" V 3100 5250 50  0000 L CNN
F 2 "Resistor_THT:R_Axial_DIN0207_L6.3mm_D2.5mm_P7.62mm_Horizontal" V 3030 5350 50  0001 C CNN
F 3 "~" H 3100 5350 50  0001 C CNN
	1    3100 5350
	1    0    0    -1  
$EndComp
Wire Wire Line
	2700 5000 2700 5100
Wire Wire Line
	3900 5100 3900 5500
Wire Wire Line
	3100 5500 3100 5600
Connection ~ 3100 5600
Wire Wire Line
	3100 5600 4100 5600
Wire Wire Line
	2700 5100 3100 5100
Wire Wire Line
	3100 5100 3100 5200
Connection ~ 3100 5100
Wire Wire Line
	3100 5100 3900 5100
$EndSCHEMATC
