EESchema Schematic File Version 4
LIBS:MulticompX-cache
EELAYER 30 0
EELAYER END
$Descr USLetter 11000 8500
encoding utf-8
Sheet 3 7
Title "PDP10X/Multicomp System Board"
Date "2020-01-24"
Rev "1.0"
Comp ""
Comment1 ""
Comment2 ""
Comment3 "From an original design by David G. Conroy (http://www.fpgaretrocomputing.org)"
Comment4 "Copyright © 2020 Rob Gowin. Licensed under CC BY-NC-SA 4.0."
$EndDescr
$Comp
L Device:Battery_Cell BT601
U 1 1 5D514A7C
P 4500 3050
F 0 "BT601" H 4200 3200 50  0000 L CNN
F 1 "Battery_Cell" H 3900 3100 50  0000 L CNN
F 2 "Battery:Keystone_1065" V 4500 3110 50  0001 C CNN
F 3 "~" V 4500 3110 50  0001 C CNN
	1    4500 3050
	1    0    0    -1  
$EndComp
$Comp
L DS1337:DS1337 U601
U 1 1 5D52D57E
P 7000 4200
F 0 "U601" H 6650 4650 50  0000 C CNN
F 1 "DS1337" H 7000 4200 50  0001 L BNN
F 2 "Package_DIP:DIP-8_W7.62mm_Socket_LongPads" H 7030 4350 20  0001 C CNN
F 3 "" H 7000 4200 50  0001 C CNN
	1    7000 4200
	1    0    0    -1  
$EndComp
$Comp
L Device:R R601
U 1 1 5D52D5FB
P 5200 2750
F 0 "R601" V 5300 2650 50  0000 L CNN
F 1 "1000" V 5200 2650 50  0000 L CNN
F 2 "Resistor_THT:R_Axial_DIN0207_L6.3mm_D2.5mm_P7.62mm_Horizontal" V 5130 2750 50  0001 C CNN
F 3 "~" H 5200 2750 50  0001 C CNN
	1    5200 2750
	0    -1   -1   0   
$EndComp
$Comp
L Diode:1N4148 D602
U 1 1 5D52D673
P 5600 2750
F 0 "D602" H 5600 2966 50  0000 C CNN
F 1 "1N4148" H 5600 2875 50  0000 C CNN
F 2 "Diode_THT:D_DO-35_SOD27_P7.62mm_Horizontal" H 5600 2575 50  0001 C CNN
F 3 "http://www.nxp.com/documents/data_sheet/1N4148_1N4448.pdf" H 5600 2750 50  0001 C CNN
	1    5600 2750
	-1   0    0    -1  
$EndComp
$Comp
L Diode:1N4148 D601
U 1 1 5D52D7C4
P 5600 2350
F 0 "D601" H 5600 2566 50  0000 C CNN
F 1 "1N4148" H 5600 2475 50  0000 C CNN
F 2 "Diode_THT:D_DO-35_SOD27_P7.62mm_Horizontal" H 5600 2175 50  0001 C CNN
F 3 "http://www.nxp.com/documents/data_sheet/1N4148_1N4448.pdf" H 5600 2350 50  0001 C CNN
	1    5600 2350
	-1   0    0    -1  
$EndComp
$Comp
L power:VDD #PWR0131
U 1 1 5D52DCDC
P 5250 2150
F 0 "#PWR0131" H 5250 2000 50  0001 C CNN
F 1 "VDD" H 5267 2323 50  0000 C CNN
F 2 "" H 5250 2150 50  0001 C CNN
F 3 "" H 5250 2150 50  0001 C CNN
	1    5250 2150
	1    0    0    -1  
$EndComp
Wire Wire Line
	5250 2150 5250 2350
Wire Wire Line
	5250 2350 5450 2350
$Comp
L Device:CP1 C601
U 1 1 5D52E27B
P 6100 2900
F 0 "C601" H 6215 2946 50  0000 L CNN
F 1 "10uF" H 6215 2855 50  0000 L CNN
F 2 "Capacitor_THT:CP_Radial_Tantal_D4.5mm_P2.50mm" H 6100 2900 50  0001 C CNN
F 3 "~" H 6100 2900 50  0001 C CNN
	1    6100 2900
	1    0    0    -1  
$EndComp
$Comp
L Device:C C602
U 1 1 5D52E7DC
P 6600 2900
F 0 "C602" H 6715 2946 50  0000 L CNN
F 1 "0.1uF" H 6715 2855 50  0000 L CNN
F 2 "Capacitor_THT:C_Rect_L7.0mm_W2.0mm_P5.00mm" H 6638 2750 50  0001 C CNN
F 3 "~" H 6600 2900 50  0001 C CNN
	1    6600 2900
	1    0    0    -1  
$EndComp
Wire Wire Line
	5750 2750 5850 2750
Connection ~ 6100 2750
Wire Wire Line
	6100 2750 6600 2750
Connection ~ 6600 2750
Wire Wire Line
	6600 2750 7100 2750
Wire Wire Line
	5750 2350 5850 2350
Wire Wire Line
	5850 2350 5850 2750
Connection ~ 5850 2750
Wire Wire Line
	5850 2750 6100 2750
Wire Wire Line
	5350 2750 5450 2750
Wire Wire Line
	4500 2850 4500 2750
Wire Wire Line
	4500 2750 5050 2750
NoConn ~ 7600 4300
NoConn ~ 7600 4400
$Comp
L power:GND #PWR0132
U 1 1 5D52F9E9
P 7000 5050
F 0 "#PWR0132" H 7000 4800 50  0001 C CNN
F 1 "GND" H 7005 4877 50  0000 C CNN
F 2 "" H 7000 5050 50  0001 C CNN
F 3 "" H 7000 5050 50  0001 C CNN
	1    7000 5050
	1    0    0    -1  
$EndComp
$Comp
L power:GND #PWR0133
U 1 1 5D52FA10
P 4500 3350
F 0 "#PWR0133" H 4500 3100 50  0001 C CNN
F 1 "GND" H 4505 3177 50  0000 C CNN
F 2 "" H 4500 3350 50  0001 C CNN
F 3 "" H 4500 3350 50  0001 C CNN
	1    4500 3350
	1    0    0    -1  
$EndComp
Wire Wire Line
	7000 4900 7000 5050
$Comp
L Device:Crystal Y601
U 1 1 5D52D928
P 6900 3400
F 0 "Y601" H 6900 3668 50  0000 C CNN
F 1 "32.768 kHz" H 6900 3577 50  0000 C CNN
F 2 "Crystal:Crystal_Round_D2.0mm_Vertical" H 6900 3400 50  0001 C CNN
F 3 "~" H 6900 3400 50  0001 C CNN
	1    6900 3400
	1    0    0    -1  
$EndComp
Wire Wire Line
	4500 3150 4500 3350
Wire Wire Line
	7300 2750 7300 3600
Wire Wire Line
	6750 3400 6750 3600
Wire Wire Line
	6750 3600 6800 3600
Wire Wire Line
	7050 3400 7050 3600
Wire Wire Line
	7050 3600 7000 3600
Text HLabel 4450 4400 0    59   BiDi ~ 0
RSDA
Text HLabel 4450 4200 0    59   Input ~ 0
RSCL
Wire Wire Line
	4450 4200 5200 4200
Wire Wire Line
	4450 4400 5700 4400
$Comp
L power:GND #PWR0148
U 1 1 5D54CDD4
P 5900 3050
F 0 "#PWR0148" H 5900 2800 50  0001 C CNN
F 1 "GND" H 5905 2877 50  0000 C CNN
F 2 "" H 5900 3050 50  0001 C CNN
F 3 "" H 5900 3050 50  0001 C CNN
	1    5900 3050
	1    0    0    -1  
$EndComp
Wire Wire Line
	5900 3050 6100 3050
Connection ~ 6100 3050
Wire Wire Line
	6100 3050 6600 3050
$Comp
L power:PWR_FLAG #FLG0102
U 1 1 5D6EBBE8
P 7100 2750
F 0 "#FLG0102" H 7100 2825 50  0001 C CNN
F 1 "PWR_FLAG" H 7100 2924 50  0000 C CNN
F 2 "" H 7100 2750 50  0001 C CNN
F 3 "~" H 7100 2750 50  0001 C CNN
	1    7100 2750
	1    0    0    -1  
$EndComp
Connection ~ 7100 2750
Wire Wire Line
	7100 2750 7300 2750
$Comp
L Device:R R602
U 1 1 5DAFCE70
P 5200 3850
F 0 "R602" V 5300 3750 50  0000 L CNN
F 1 "1800" V 5200 3750 50  0000 L CNN
F 2 "Resistor_THT:R_Axial_DIN0207_L6.3mm_D2.5mm_P7.62mm_Horizontal" V 5130 3850 50  0001 C CNN
F 3 "~" H 5200 3850 50  0001 C CNN
	1    5200 3850
	1    0    0    -1  
$EndComp
$Comp
L Device:R R603
U 1 1 5DAFD37E
P 5700 3850
F 0 "R603" V 5800 3750 50  0000 L CNN
F 1 "1800" V 5700 3750 50  0000 L CNN
F 2 "Resistor_THT:R_Axial_DIN0207_L6.3mm_D2.5mm_P7.62mm_Horizontal" V 5630 3850 50  0001 C CNN
F 3 "~" H 5700 3850 50  0001 C CNN
	1    5700 3850
	1    0    0    -1  
$EndComp
Wire Wire Line
	5200 4000 5200 4200
Connection ~ 5200 4200
Wire Wire Line
	5200 4200 6400 4200
Wire Wire Line
	5700 4000 5700 4400
Connection ~ 5700 4400
Wire Wire Line
	5700 4400 6400 4400
$Comp
L power:VDD #PWR0123
U 1 1 5DAFDD43
P 5000 3400
F 0 "#PWR0123" H 5000 3250 50  0001 C CNN
F 1 "VDD" H 5017 3573 50  0000 C CNN
F 2 "" H 5000 3400 50  0001 C CNN
F 3 "" H 5000 3400 50  0001 C CNN
	1    5000 3400
	1    0    0    -1  
$EndComp
Wire Wire Line
	5000 3400 5000 3500
Wire Wire Line
	5000 3500 5200 3500
Wire Wire Line
	5200 3500 5200 3700
Wire Wire Line
	5200 3500 5700 3500
Wire Wire Line
	5700 3500 5700 3700
Connection ~ 5200 3500
$EndSCHEMATC
