G04 #@! TF.GenerationSoftware,KiCad,Pcbnew,(5.1.4-0-10_14)*
G04 #@! TF.CreationDate,2020-01-10T20:10:38-06:00*
G04 #@! TF.ProjectId,PDP10X,50445031-3058-42e6-9b69-6361645f7063,rev?*
G04 #@! TF.SameCoordinates,Original*
G04 #@! TF.FileFunction,Profile,NP*
%FSLAX46Y46*%
G04 Gerber Fmt 4.6, Leading zero omitted, Abs format (unit mm)*
G04 Created by KiCad (PCBNEW (5.1.4-0-10_14)) date 2020-01-10 20:10:38*
%MOMM*%
%LPD*%
G04 APERTURE LIST*
%ADD10C,0.150000*%
G04 APERTURE END LIST*
D10*
X210000000Y-18000000D02*
X210000000Y-148000000D01*
X85000000Y-18000000D02*
X210000000Y-18000000D01*
X85000000Y-148000000D02*
X85000000Y-18000000D01*
X210000000Y-148000000D02*
X85000000Y-148000000D01*
M02*
